…
Comment interpréter :  

- Les différents **cibles** apparaissent sous forme de **cercles**  
- Les **fonctions** qui leur sont appliquées apparaissent sous forme de **triangles**  
- Les dépendances entre les **cibles** et les **fonctions** apparaissent sous forme de **flèches**  
- Les **couleurs** correspondent aux différents états des éléments

## D'autres fonctions utiles

- La fonction [tar_load()](https://docs.ropensci.org/targets/reference/tar_load.html) permet - à n'importe quel moment - de **charger les objets** d'intérêt dans notre session.  

```{.r}
> tar_load(mes_donnees)
> mes_donnees
# A tibble: 150 × 5
   Sepal.Length Sepal.Width Petal.Length Petal.Width Species
          <dbl>       <dbl>        <dbl>       <dbl> <chr>  
 1           51          35           14           2 setosa 
 2           49           3           14           2 setosa 
 3           47          32           13           2 setosa 
 4           46          31           15           2 setosa 
 5            5          36           14           2 setosa 
 6           54          39           17           4 setosa 
 7           46          34           14           3 setosa 
 8            5          34           15           2 setosa 
 9           44          29           14           2 setosa 
10           49          31           15           1 setosa 
# ℹ 140 more rows
# ℹ Use `print(n = ...)` to see more rows
```
…
